File /tmp/context10-3511495873539434710.txt written out
File /tmp/context10-4614232377922160296.txt written out
Tue May 13 15:24:22 CST 2014

Testing Obj/Attr Traversal on /tmp/context10-6593730441687348384.txt
...........
Testing Adjacency Matrix on /tmp/context10-6593730441687348384.txt
...........
Testing Obj/Attr Traversal on /tmp/context100-8300844244304588105.txt
...........
Testing Adjacency Matrix on /tmp/context100-8300844244304588105.txt
...........
Testing Obj/Attr Traversal on data/RecursiveChunking.txt
...........
Testing Adjacency Matrix on data/RecursiveChunking.txt
...........
Testing Obj/Attr Traversal on /tmp/context10-3511495873539434710.txt
...........
Testing Adjacency Matrix on /tmp/context10-3511495873539434710.txt
...........
Testing Obj/Attr Traversal on data/VAST_resolved_updated.txt
...........
Testing Adjacency Matrix on data/VAST_resolved_updated.txt
...........
Testing Obj/Attr Traversal on /tmp/context10-4614232377922160296.txt
...........
Testing Adjacency Matrix on /tmp/context10-4614232377922160296.txt
...........
Benchmarking took a total of 26 minutes (1616135ms).

[ 1] /tmp/context10-6593730441687348384.txt
[ 2] /tmp/context100-8300844244304588105.txt
[ 3] data/RecursiveChunking.txt
[ 4] /tmp/context10-3511495873539434710.txt
[ 5] data/VAST_resolved_updated.txt
[ 6] /tmp/context10-4614232377922160296.txt
Finder	1	2	3	4	5	6
Obj/Attr Traversal	2.45	14.55	0.00	3.64	807.18	141831.09
Adjacency Matrix	5.18	19.00	1.00	1.09	1895.64	2170.73


Component finding benchmark
File /tmp/RecursiveChunking10-7222393744362957139.txt written out
File /tmp/RecursiveChunking100-6531222191801431656.txt written out
File /tmp/VAST_resolved_updated10-4965299210405011983.txt written out
Tue May 13 16:13:46 CST 2014

Testing Obj/Attr Traversal on /tmp/diag10-3242592369823791108.txt ...........
Testing Adjacency Matrix on /tmp/diag10-3242592369823791108.txt ...........
Testing Obj/Attr Traversal on /tmp/diag100-4861132395055747169.txt ...........
Testing Adjacency Matrix on /tmp/diag100-4861132395055747169.txt ...........
Testing Obj/Attr Traversal on /tmp/diag1000-2495962677380691225.txt ...........
Testing Adjacency Matrix on /tmp/diag1000-2495962677380691225.txt ...........
Testing Obj/Attr Traversal on /tmp/RecursiveChunking10-7222393744362957139.txt ...........
Testing Adjacency Matrix on /tmp/RecursiveChunking10-7222393744362957139.txt ...........
Testing Obj/Attr Traversal on /tmp/RecursiveChunking100-6531222191801431656.txt ...........
Testing Adjacency Matrix on /tmp/RecursiveChunking100-6531222191801431656.txt ...........
Testing Obj/Attr Traversal on data/VAST_resolved_updated.txt ...........
Testing Adjacency Matrix on data/VAST_resolved_updated.txt ...........
Testing Obj/Attr Traversal on /tmp/VAST_resolved_updated10-4965299210405011983.txt ...........
Testing Adjacency Matrix on /tmp/VAST_resolved_updated10-4965299210405011983.txt ...........
Benchmarking took a total of 25 minutes (1542737ms).

[ 1]	/tmp/diag10-3242592369823791108.txt
[ 2]	/tmp/diag100-4861132395055747169.txt
[ 3]	/tmp/diag1000-2495962677380691225.txt
[ 4]	/tmp/RecursiveChunking10-7222393744362957139.txt
[ 5]	/tmp/RecursiveChunking100-6531222191801431656.txt
[ 6]	data/VAST_resolved_updated.txt
[ 7]	/tmp/VAST_resolved_updated10-4965299210405011983.txt
Finder	1	2	3	4	5	6	7
Obj/Attr Traversal	1.64	14.82	1202.64	1.00	84.82	785.73	131586.09
Adjacency Matrix	4.64	18.18	2376.45	0.09	0.27	1872.18	2136.55


Component finding benchmark: Wed May 14 09:14:25 CST 2014
10 iterations

File /tmp/RecursiveChunking10-1554153524486039981.txt written out
File /tmp/RecursiveChunking100-3206001800618514369.txt written out
File /tmp/RecursiveChunking1000-6118099029549839456.txt written out
File /tmp/VAST_resolved_updated10-7770860202092959762.txt written out

Testing Obj/Attr Traversal on /tmp/diag10-4421086241137109163.txt ...........
Testing Adjacency Matrix on /tmp/diag10-4421086241137109163.txt ...........
Testing Obj/Attr Traversal on /tmp/diag100-6276584013157670967.txt ...........
Testing Adjacency Matrix on /tmp/diag100-6276584013157670967.txt ...........
Testing Obj/Attr Traversal on /tmp/RecursiveChunking10-1554153524486039981.txt ...........
Testing Adjacency Matrix on /tmp/RecursiveChunking10-1554153524486039981.txt ...........
Testing Obj/Attr Traversal on /tmp/RecursiveChunking100-3206001800618514369.txt ...........
Testing Adjacency Matrix on /tmp/RecursiveChunking100-3206001800618514369.txt ...........
Testing Obj/Attr Traversal on /tmp/RecursiveChunking1000-6118099029549839456.txt ...........
Testing Adjacency Matrix on /tmp/RecursiveChunking1000-6118099029549839456.txt ...........
Testing Obj/Attr Traversal on /tmp/diag1000-7787012898003361562.txt ...........
Testing Adjacency Matrix on /tmp/diag1000-7787012898003361562.txt ...........
Testing Obj/Attr Traversal on data/VAST_resolved_updated.txt ...........
Testing Adjacency Matrix on data/VAST_resolved_updated.txt ...........
Testing Obj/Attr Traversal on /tmp/VAST_resolved_updated10-7770860202092959762.txt ...........
Testing Adjacency Matrix on /tmp/VAST_resolved_updated10-7770860202092959762.txt ...........

Benchmarking took a total of 31 minutes (1899659ms).

[ 1]	/tmp/diag10-4421086241137109163.txt
[ 2]	/tmp/diag100-6276584013157670967.txt
[ 3]	/tmp/RecursiveChunking10-1554153524486039981.txt
[ 4]	/tmp/RecursiveChunking100-3206001800618514369.txt
[ 5]	/tmp/RecursiveChunking1000-6118099029549839456.txt
[ 6]	/tmp/diag1000-7787012898003361562.txt
[ 7]	data/VAST_resolved_updated.txt
[ 8]	/tmp/VAST_resolved_updated10-7770860202092959762.txt
Finder	1	2	3	4	5	6	7	8
Obj/Attr Traversal	2.55	16.27	3.00	106.91	12313.73	1269.36	791.18	151347.82
Adjacency Matrix	5.36	20.36	2.45	2.91	9.91	2279.00	1889.09	2155.18


Component finding benchmark: 2014-05-15 16:43:10
10 iterations

File /tmp/RecursiveChunking10-1566503846999644467.txt written out
File /tmp/RecursiveChunking100-6695775925867260812.txt written out
File /tmp/RecursiveChunking1000-4602601490098658724.txt written out
File /tmp/VAST_resolved_updated10-4369058276513648013.txt written out

Testing Obj/Attr Traversal on /tmp/diag10-3478758624010642942.txt ...........
Testing Aggregating on /tmp/diag10-3478758624010642942.txt ...........
Testing Adjacency Matrix on /tmp/diag10-3478758624010642942.txt ...........
Testing Obj/Attr Traversal on /tmp/diag100-1079507268458414150.txt ...........
Testing Aggregating on /tmp/diag100-1079507268458414150.txt ...........
Testing Adjacency Matrix on /tmp/diag100-1079507268458414150.txt ...........
Testing Obj/Attr Traversal on /tmp/RecursiveChunking10-1566503846999644467.txt ...........
Testing Aggregating on /tmp/RecursiveChunking10-1566503846999644467.txt ...........
Testing Adjacency Matrix on /tmp/RecursiveChunking10-1566503846999644467.txt ...........
Testing Obj/Attr Traversal on /tmp/RecursiveChunking100-6695775925867260812.txt ...........
Testing Aggregating on /tmp/RecursiveChunking100-6695775925867260812.txt ...........
Testing Adjacency Matrix on /tmp/RecursiveChunking100-6695775925867260812.txt ...........
Testing Obj/Attr Traversal on /tmp/RecursiveChunking1000-4602601490098658724.txt ...........
Testing Aggregating on /tmp/RecursiveChunking1000-4602601490098658724.txt ...........
Testing Adjacency Matrix on /tmp/RecursiveChunking1000-4602601490098658724.txt ...........
Testing Obj/Attr Traversal on /tmp/diag1000-3114119638649118094.txt ...........
Testing Aggregating on /tmp/diag1000-3114119638649118094.txt ...........
Testing Adjacency Matrix on /tmp/diag1000-3114119638649118094.txt ...........
Testing Obj/Attr Traversal on data/VAST_resolved_updated.txt ...........
Testing Aggregating on data/VAST_resolved_updated.txt ...........
Testing Adjacency Matrix on data/VAST_resolved_updated.txt ...........
Testing Obj/Attr Traversal on /tmp/VAST_resolved_updated10-4369058276513648013.txt ...........
Testing Aggregating on /tmp/VAST_resolved_updated10-4369058276513648013.txt ...........
Testing Adjacency Matrix on /tmp/VAST_resolved_updated10-4369058276513648013.txt ...........

Benchmarking took a total of 31 minutes (1870242ms).

[ 1]	/tmp/diag10-3478758624010642942.txt
[ 2]	/tmp/diag100-1079507268458414150.txt
[ 3]	/tmp/RecursiveChunking10-1566503846999644467.txt
[ 4]	/tmp/RecursiveChunking100-6695775925867260812.txt
[ 5]	/tmp/RecursiveChunking1000-4602601490098658724.txt
[ 6]	/tmp/diag1000-3114119638649118094.txt
[ 7]	data/VAST_resolved_updated.txt
[ 8]	/tmp/VAST_resolved_updated10-4369058276513648013.txt
Finder	1	2	3	4	5	6	7	8
Obj/Attr Traversal	1.82	13.36	3.09	87.00	11121.64	1235.09	907.55	149009.45
Aggregating	1.73	5.27	0.91	0.09	3.91	801.27	42.45	53.00
Adjacency Matrix	4.45	19.36	1.91	1.36	9.09	2397.64	1781.73	2059.55


Now using ArrayBuffer instead of ListBuffer in Aggregating finder (JDK1.8.0_11)
Component finding benchmark: 2014-10-22 16:45:27
10 iterations

File /tmp/RecursiveChunking10-4938288170384218937.txt written out
File /tmp/RecursiveChunking100-5983962690759091990.txt written out
File /tmp/RecursiveChunking1000-8863777241919177162.txt written out
File /tmp/VAST_resolved_updated10-8583024633823761122.txt written out

Testing Obj/Attr Traversal on /tmp/diag10-9202947075764737523.txt ...........
Testing Aggregating on /tmp/diag10-9202947075764737523.txt ...........
Testing Adjacency Matrix on /tmp/diag10-9202947075764737523.txt ...........
Testing Obj/Attr Traversal on /tmp/diag100-936959616984090302.txt ...........
Testing Aggregating on /tmp/diag100-936959616984090302.txt ...........
Testing Adjacency Matrix on /tmp/diag100-936959616984090302.txt ...........
Testing Obj/Attr Traversal on /tmp/RecursiveChunking10-4938288170384218937.txt ...........
Testing Aggregating on /tmp/RecursiveChunking10-4938288170384218937.txt ...........
Testing Adjacency Matrix on /tmp/RecursiveChunking10-4938288170384218937.txt ...........
Testing Obj/Attr Traversal on /tmp/RecursiveChunking100-5983962690759091990.txt ...........
Testing Aggregating on /tmp/RecursiveChunking100-5983962690759091990.txt ...........
Testing Adjacency Matrix on /tmp/RecursiveChunking100-5983962690759091990.txt ...........
Testing Obj/Attr Traversal on /tmp/RecursiveChunking1000-8863777241919177162.txt ...........
Testing Aggregating on /tmp/RecursiveChunking1000-8863777241919177162.txt ...........
Testing Adjacency Matrix on /tmp/RecursiveChunking1000-8863777241919177162.txt ...........
Testing Obj/Attr Traversal on /tmp/diag1000-2721110046730407453.txt ...........
Testing Aggregating on /tmp/diag1000-2721110046730407453.txt ...........
Testing Adjacency Matrix on /tmp/diag1000-2721110046730407453.txt ...........
Testing Obj/Attr Traversal on data/VAST_resolved_updated.txt ...........
Testing Aggregating on data/VAST_resolved_updated.txt ...........
Testing Adjacency Matrix on data/VAST_resolved_updated.txt ...........
Testing Obj/Attr Traversal on /tmp/VAST_resolved_updated10-8583024633823761122.txt ...........
Testing Aggregating on /tmp/VAST_resolved_updated10-8583024633823761122.txt ...........
Testing Adjacency Matrix on /tmp/VAST_resolved_updated10-8583024633823761122.txt ...........

Benchmarking took a total of 0 minutes (40600ms).

22/10/14 16:45
[ 1] /tmp/diag10-9202947075764737523.txt
[ 2] /tmp/diag100-936959616984090302.txt
[ 3] /tmp/RecursiveChunking10-4938288170384218937.txt
[ 4] /tmp/RecursiveChunking100-5983962690759091990.txt
[ 5] /tmp/RecursiveChunking1000-8863777241919177162.txt
[ 6] /tmp/diag1000-2721110046730407453.txt
[ 7] data/VAST_resolved_updated.txt
[ 8] /tmp/VAST_resolved_updated10-8583024633823761122.txt
Finder 1 2 3 4 5 6 7 8
Obj/Attr Traversal 2.00 5.27 0.00 5.45 29.45 45.55 24.91 331.64
Aggregating 1.18 1.36 0.00 0.00 3.64 8.45 3.00 14.00
Adjacency Matrix 2.73 8.36 0.18 1.27 6.36 651.27 1142.64 1354.18





